<svg width="4911" height="164" viewBox="0 0 4911 164" fill="none" xmlns="http://www.w3.org/2000/svg">
<path d="M207.786 160H162.942L151.176 74.974L115.656 152.452H92.79L57.27 74.974L45.504 160H0.66L24.192 4.59999H68.592L104.112 84.298L139.854 4.59999H184.254L207.786 160ZM306.82 163.996C289.948 163.996 274.926 160.518 261.754 153.562C248.73 146.458 238.592 136.69 231.34 124.258C224.236 111.826 220.684 97.84 220.684 82.3C220.684 66.76 224.236 52.774 231.34 40.342C238.592 27.91 248.73 18.216 261.754 11.26C274.926 4.15599 289.948 0.603988 306.82 0.603988C323.692 0.603988 338.64 4.15599 351.664 11.26C364.688 18.216 374.752 27.91 381.856 40.342C389.108 52.774 392.734 66.76 392.734 82.3C392.734 97.84 389.108 111.826 381.856 124.258C374.752 136.69 364.688 146.458 351.664 153.562C338.64 160.518 323.692 163.996 306.82 163.996ZM306.82 123.148C314.368 123.148 321.176 121.446 327.244 118.042C333.312 114.49 338.048 109.606 341.452 103.39C345.004 97.174 346.78 90.144 346.78 82.3C346.78 74.456 345.004 67.426 341.452 61.21C338.048 54.994 333.312 50.184 327.244 46.78C321.176 43.228 314.368 41.452 306.82 41.452C299.272 41.452 292.39 43.228 286.174 46.78C280.106 50.184 275.296 54.994 271.744 61.21C268.34 67.426 266.638 74.456 266.638 82.3C266.638 90.144 268.34 97.174 271.744 103.39C275.296 109.606 280.106 114.49 286.174 118.042C292.39 121.446 299.272 123.148 306.82 123.148ZM473.838 113.158H459.852V160H415.23V4.59999H481.608C493.744 4.59999 504.326 6.96799 513.354 11.704C522.53 16.292 529.56 22.582 534.444 30.574C539.328 38.566 541.77 47.594 541.77 57.658C541.77 67.574 539.476 76.306 534.888 83.854C530.448 91.402 524.232 97.248 516.24 101.392L547.764 160H498.48L473.838 113.158ZM496.038 59.656C496.038 54.476 494.336 50.406 490.932 47.446C487.528 44.338 482.718 42.784 476.502 42.784H458.964V76.75H476.502C482.718 76.75 487.528 75.196 490.932 72.088C494.336 68.98 496.038 64.836 496.038 59.656ZM610.893 122.482H668.391V160H566.271V4.59999H666.837V42.118H610.893V64.096H661.065V99.616H610.893V122.482ZM801.209 163.996C780.637 163.996 764.801 159.112 753.701 149.344C742.601 139.576 737.051 126.478 737.051 110.05H783.005C783.005 115.082 784.559 118.93 787.667 121.594C790.775 124.258 795.363 125.59 801.431 125.59C806.611 125.59 810.533 124.554 813.197 122.482C815.861 120.41 817.193 117.598 817.193 114.046C817.193 109.902 815.195 106.794 811.199 104.722C807.203 102.502 800.247 100.134 790.331 97.618C780.563 94.954 772.127 91.994 765.023 88.738C758.067 85.482 752.073 80.598 747.041 74.086C742.009 67.574 739.493 59.064 739.493 48.556C739.493 34.2 744.673 22.656 755.033 13.924C765.393 5.04399 780.267 0.603988 799.655 0.603988C818.599 0.603988 833.103 5.19199 843.167 14.368C853.379 23.396 858.485 35.754 858.485 51.442H813.641C813.641 47.298 812.309 44.042 809.645 41.674C807.129 39.306 803.429 38.122 798.545 38.122C794.401 38.122 791.145 39.084 788.777 41.008C786.557 42.784 785.447 45.078 785.447 47.89C785.447 51.59 787.371 54.402 791.219 56.326C795.067 58.25 801.653 60.47 810.977 62.986C821.337 65.65 830.069 68.61 837.173 71.866C844.277 74.974 850.345 79.858 855.377 86.518C860.557 93.03 863.147 101.688 863.147 112.492C863.147 122.704 860.779 131.658 856.043 139.354C851.307 147.05 844.277 153.118 834.953 157.558C825.629 161.85 814.381 163.996 801.209 163.996ZM885.414 4.59999H930.258V160H885.414V4.59999ZM1157.98 160H1113.13L1101.37 74.974L1065.85 152.452H1042.98L1007.46 74.974L995.693 160H950.849L974.381 4.59999H1018.78L1054.3 84.298L1090.04 4.59999H1134.44L1157.98 160ZM1244.54 4.59999C1256.23 4.59999 1266.59 7.04199 1275.62 11.926C1284.64 16.81 1291.6 23.544 1296.48 32.128C1301.52 40.712 1304.03 50.406 1304.03 61.21C1304.03 72.162 1301.52 81.93 1296.48 90.514C1291.6 99.098 1284.64 105.832 1275.62 110.716C1266.74 115.6 1256.45 118.042 1244.76 118.042H1223.45V160H1178.82V4.59999H1244.54ZM1237.21 79.858C1244.02 79.858 1249.2 78.23 1252.75 74.974C1256.3 71.718 1258.08 67.13 1258.08 61.21C1258.08 55.438 1256.3 50.924 1252.75 47.668C1249.2 44.412 1244.02 42.784 1237.21 42.784H1223.45V79.858H1237.21ZM1369.93 118.93H1426.1V160H1325.31V4.59999H1369.93V118.93ZM1491.06 122.482H1548.56V160H1446.44V4.59999H1547V42.118H1491.06V64.096H1541.23V99.616H1491.06V122.482ZM1822.34 160H1777.5L1765.73 74.974L1730.21 152.452H1707.35L1671.83 74.974L1660.06 160H1615.22L1638.75 4.59999H1683.15L1718.67 84.298L1754.41 4.59999H1798.81L1822.34 160ZM1921.38 163.996C1904.5 163.996 1889.48 160.518 1876.31 153.562C1863.29 146.458 1853.15 136.69 1845.9 124.258C1838.79 111.826 1835.24 97.84 1835.24 82.3C1835.24 66.76 1838.79 52.774 1845.9 40.342C1853.15 27.91 1863.29 18.216 1876.31 11.26C1889.48 4.15599 1904.5 0.603988 1921.38 0.603988C1938.25 0.603988 1953.2 4.15599 1966.22 11.26C1979.24 18.216 1989.31 27.91 1996.41 40.342C2003.66 52.774 2007.29 66.76 2007.29 82.3C2007.29 97.84 2003.66 111.826 1996.41 124.258C1989.31 136.69 1979.24 146.458 1966.22 153.562C1953.2 160.518 1938.25 163.996 1921.38 163.996ZM1921.38 123.148C1928.92 123.148 1935.73 121.446 1941.8 118.042C1947.87 114.49 1952.6 109.606 1956.01 103.39C1959.56 97.174 1961.34 90.144 1961.34 82.3C1961.34 74.456 1959.56 67.426 1956.01 61.21C1952.6 54.994 1947.87 50.184 1941.8 46.78C1935.73 43.228 1928.92 41.452 1921.38 41.452C1913.83 41.452 1906.95 43.228 1900.73 46.78C1894.66 50.184 1889.85 54.994 1886.3 61.21C1882.9 67.426 1881.19 74.456 1881.19 82.3C1881.19 90.144 1882.9 97.174 1886.3 103.39C1889.85 109.606 1894.66 114.49 1900.73 118.042C1906.95 121.446 1913.83 123.148 1921.38 123.148ZM2088.39 113.158H2074.41V160H2029.79V4.59999H2096.16C2108.3 4.59999 2118.88 6.96799 2127.91 11.704C2137.09 16.292 2144.12 22.582 2149 30.574C2153.88 38.566 2156.33 47.594 2156.33 57.658C2156.33 67.574 2154.03 76.306 2149.44 83.854C2145 91.402 2138.79 97.248 2130.8 101.392L2162.32 160H2113.04L2088.39 113.158ZM2110.59 59.656C2110.59 54.476 2108.89 50.406 2105.49 47.446C2102.08 44.338 2097.27 42.784 2091.06 42.784H2073.52V76.75H2091.06C2097.27 76.75 2102.08 75.196 2105.49 72.088C2108.89 68.98 2110.59 64.836 2110.59 59.656ZM2225.45 122.482H2282.95V160H2180.83V4.59999H2281.39V42.118H2225.45V64.096H2275.62V99.616H2225.45V122.482ZM2447.29 4.59999H2491.91V160H2447.29V101.17H2402.22V160H2357.6V4.59999H2402.22V60.1H2447.29V4.59999ZM2588.5 163.996C2574.44 163.996 2562.23 161.332 2551.87 156.004C2541.66 150.528 2533.81 142.832 2528.34 132.916C2522.86 123 2520.12 111.308 2520.12 97.84V4.59999H2565.41V97.618C2565.41 105.758 2567.41 112.048 2571.4 116.488C2575.55 120.928 2581.25 123.148 2588.5 123.148C2595.75 123.148 2601.37 120.928 2605.37 116.488C2609.51 112.048 2611.59 105.758 2611.59 97.618V4.59999H2657.1V97.84C2657.1 111.308 2654.36 123 2648.88 132.916C2643.41 142.832 2635.49 150.528 2625.13 156.004C2614.77 161.332 2602.56 163.996 2588.5 163.996ZM2882.88 160H2838.04L2826.27 74.974L2790.75 152.452H2767.89L2732.37 74.974L2720.6 160H2675.76L2699.29 4.59999H2743.69L2779.21 84.298L2814.95 4.59999H2859.35L2882.88 160ZM3007.63 160L2998.3 136.246H2945.91L2936.59 160H2889.08L2950.13 4.59999H2995.19L3056.47 160H3007.63ZM2989.42 102.28L2972.11 56.326L2954.57 102.28H2989.42ZM3166.06 4.59999H3210.24V160H3170.5L3114.34 81.412V160H3070.38V4.59999H3109.9L3166.06 82.966V4.59999ZM3486.61 160H3441.77L3430 74.974L3394.48 152.452H3371.62L3336.1 74.974L3324.33 160H3279.49L3303.02 4.59999H3347.42L3382.94 84.298L3418.68 4.59999H3463.08L3486.61 160ZM3585.65 163.996C3568.77 163.996 3553.75 160.518 3540.58 153.562C3527.56 146.458 3517.42 136.69 3510.17 124.258C3503.06 111.826 3499.51 97.84 3499.51 82.3C3499.51 66.76 3503.06 52.774 3510.17 40.342C3517.42 27.91 3527.56 18.216 3540.58 11.26C3553.75 4.15599 3568.77 0.603988 3585.65 0.603988C3602.52 0.603988 3617.47 4.15599 3630.49 11.26C3643.51 18.216 3653.58 27.91 3660.68 40.342C3667.93 52.774 3671.56 66.76 3671.56 82.3C3671.56 97.84 3667.93 111.826 3660.68 124.258C3653.58 136.69 3643.51 146.458 3630.49 153.562C3617.47 160.518 3602.52 163.996 3585.65 163.996ZM3585.65 123.148C3593.19 123.148 3600 121.446 3606.07 118.042C3612.14 114.49 3616.87 109.606 3620.28 103.39C3623.83 97.174 3625.61 90.144 3625.61 82.3C3625.61 74.456 3623.83 67.426 3620.28 61.21C3616.87 54.994 3612.14 50.184 3606.07 46.78C3600 43.228 3593.19 41.452 3585.65 41.452C3578.1 41.452 3571.22 43.228 3565 46.78C3558.93 50.184 3554.12 54.994 3550.57 61.21C3547.17 67.426 3545.46 74.456 3545.46 82.3C3545.46 90.144 3547.17 97.174 3550.57 103.39C3554.12 109.606 3558.93 114.49 3565 118.042C3571.22 121.446 3578.1 123.148 3585.65 123.148ZM3752.66 113.158H3738.68V160H3694.06V4.59999H3760.43C3772.57 4.59999 3783.15 6.96799 3792.18 11.704C3801.36 16.292 3808.39 22.582 3813.27 30.574C3818.15 38.566 3820.6 47.594 3820.6 57.658C3820.6 67.574 3818.3 76.306 3813.71 83.854C3809.27 91.402 3803.06 97.248 3795.07 101.392L3826.59 160H3777.31L3752.66 113.158ZM3774.86 59.656C3774.86 54.476 3773.16 50.406 3769.76 47.446C3766.35 44.338 3761.54 42.784 3755.33 42.784H3737.79V76.75H3755.33C3761.54 76.75 3766.35 75.196 3769.76 72.088C3773.16 68.98 3774.86 64.836 3774.86 59.656ZM3889.72 122.482H3947.22V160H3845.1V4.59999H3945.66V42.118H3889.72V64.096H3939.89V99.616H3889.72V122.482ZM4085.81 4.59999C4101.64 4.59999 4115.63 7.92999 4127.76 14.59C4140.05 21.25 4149.52 30.5 4156.18 42.34C4162.99 54.032 4166.39 67.352 4166.39 82.3C4166.39 97.248 4162.99 110.642 4156.18 122.482C4149.52 134.174 4140.05 143.35 4127.76 150.01C4115.63 156.67 4101.64 160 4085.81 160H4021.87V4.59999H4085.81ZM4082.7 119.818C4094.39 119.818 4103.57 116.488 4110.23 109.828C4117.03 103.168 4120.44 93.992 4120.44 82.3C4120.44 70.608 4117.03 61.432 4110.23 54.772C4103.57 48.112 4094.39 44.782 4082.7 44.782H4066.49V119.818H4082.7ZM4188.95 4.59999H4233.8V160H4188.95V4.59999ZM4421.78 77.638C4421.78 94.954 4418.3 110.198 4411.34 123.37C4404.54 136.394 4394.84 146.458 4382.26 153.562C4369.83 160.518 4355.55 163.996 4339.42 163.996C4323.14 163.996 4308.71 160.518 4296.13 153.562C4283.55 146.606 4273.7 136.986 4266.6 124.702C4259.64 112.27 4256.17 98.136 4256.17 82.3C4256.17 66.612 4259.72 52.626 4266.82 40.342C4273.93 27.91 4283.77 18.216 4296.35 11.26C4308.93 4.15599 4323.21 0.603988 4339.19 0.603988C4352.96 0.603988 4365.61 3.19399 4377.16 8.37399C4388.7 13.554 4398.25 20.732 4405.79 29.908C4413.34 39.084 4418.15 49.444 4420.22 60.988H4373.83C4370.87 54.624 4366.5 49.74 4360.73 46.336C4354.96 42.784 4348.15 41.008 4340.3 41.008C4328.91 41.008 4319.66 44.708 4312.55 52.108C4305.6 59.508 4302.12 69.572 4302.12 82.3C4302.12 95.028 4305.67 105.092 4312.78 112.492C4320.03 119.892 4329.5 123.592 4341.19 123.592C4349.63 123.592 4356.73 121.964 4362.5 118.708C4368.28 115.452 4372.27 110.716 4374.49 104.5H4336.75V77.638H4421.78ZM4444.43 4.59999H4489.27V160H4444.43V4.59999ZM4638.62 4.59999V45.67H4596.66V160H4551.82V45.67H4509.86V4.59999H4638.62ZM4747.21 160L4737.88 136.246H4685.49L4676.17 160H4628.66L4689.71 4.59999H4734.78L4796.05 160H4747.21ZM4729 102.28L4711.69 56.326L4694.15 102.28H4729ZM4854.58 118.93H4910.75V160H4809.96V4.59999H4854.58V118.93Z" fill="url(#paint0_linear)"/>
<defs>
<linearGradient id="paint0_linear" x1="2455.5" y1="-77" x2="2828" y2="-77" gradientUnits="userSpaceOnUse">
<stop stop-color="#166C7E"/>
<stop offset="1" stop-color="#20B9AA"/>
</linearGradient>
</defs>
</svg>
